%YAML 1.1
%TAG !u! tag:unity3d.com,2011:
--- !u!114 &11400000
MonoBehaviour:
  m_ObjectHideFlags: 0
  m_CorrespondingSourceObject: {fileID: 0}
  m_PrefabInstance: {fileID: 0}
  m_PrefabAsset: {fileID: 0}
  m_GameObject: {fileID: 0}
  m_Enabled: 1
  m_EditorHideFlags: 0
  m_Script: {fileID: 11500000, guid: 7d119c3d3d934dc40a69af16e4df39cb, type: 3}
  m_Name: 13
  m_EditorClassIdentifier: 
  sprite: {fileID: 21300000, guid: 68b474468fa8da546ba7c7b2bf47549b, type: 3}
  leftQuote: "\u041C\u043D\u0435 \u0442\u043E\u0436\u0435!"
  rightQuote: "\u0414\u0430\u0442\u044C \u0432 \u0434\u043E\u043B\u0433"
  dialogue: "\u0413\u043E\u0441\u0443\u0434\u0430\u0440\u0442\u0441\u0432\u0443 \u043D\u0443\u0436\u043D\u044B
    \u0434\u0435\u043D\u044C\u0433\u0438 "
  rightImpact: 0f00000000000000f6ffffff00000000
  leftImpact: f1ffffff000000000a00000000000000
