%YAML 1.1
%TAG !u! tag:unity3d.com,2011:
--- !u!114 &11400000
MonoBehaviour:
  m_ObjectHideFlags: 0
  m_CorrespondingSourceObject: {fileID: 0}
  m_PrefabInstance: {fileID: 0}
  m_PrefabAsset: {fileID: 0}
  m_GameObject: {fileID: 0}
  m_Enabled: 1
  m_EditorHideFlags: 0
  m_Script: {fileID: 11500000, guid: 7d119c3d3d934dc40a69af16e4df39cb, type: 3}
  m_Name: 5
  m_EditorClassIdentifier: 
  sprite: {fileID: 21300000, guid: a758a3ab922c0004ea75ca4bdb23aecb, type: 3}
  leftQuote: "\u041F\u043E\u0447\u0438\u0442\u0430\u0442\u044C \u0430\u043D\u0430\u043B\u0438\u0442\u0438\u043A\u043E\u0432"
  rightQuote: "\u041A\u0443\u043F\u0438\u0442\u044C"
  dialogue: "\u041E\u0431\u043B\u0438\u0433\u0430\u0446\u0438\u044F \u0441 \u043F\u043E\u0434\u043E\u0437\u0440\u0438\u0442\u0435\u043B\u044C\u043D\u043E
    \u0432\u044B\u0441\u043E\u043A\u0438\u043C \u043F\u0440\u043E\u0446\u0435\u043D\u0442\u043E\u043C"
  rightImpact: f6ffffff000000000500000000000000
  leftImpact: 0a00000000000000fbffffff00000000
